…
**Measuring the quality of stopping rules.**
In the simulations, I record the most up-to-date values of
the hyper-parameters (`universe` counts the 100
replications and `b_is_better` is $$P(\Delta > 0)$$):

```
# A tibble: 9,000,000 x 9
   theta_a theta_b universe nth_user b_is_better alpha_a beta_a alpha_b beta_b
     <dbl>   <dbl>    <int>    <int>       <dbl>   <int>  <int>   <int>  <int>
 1     0.1     0.1        1        1       0.5         1      1       2      1
 2     0.1     0.1        1        2       0.667       1      1       2      2
 3     0.1     0.1        1        3       0.5         1      2       2      2
 4     0.1     0.1        1        4       0.7         1      3       2      2
 5     0.1     0.1        1        5       0.8         1      3       3      2
 6     0.1     0.1        1        6       0.886       1      4       3      2
 7     0.1     0.1        1        7       0.929       1      5       3      2
 8     0.1     0.1        1        8       0.952       1      5       3      3
 9     0.1     0.1        1        9       0.917       1      5       3      4
10     0.1     0.1        1       10       0.879       1      5       4      4
# … with 8,999,990 more rows
```
